[
  "4.0.28",
  [
    "intel",
    "",
    0,
    [
      [
        4096,
        2304,
        12
      ]
    ]
  ],
  [
    "intel 0x496e74656c2048442047726170686963000732034343",
    "0",
    0,
    [
      [
        1920,
        1080,
        22
      ]
    ]
  ],
  [
    "intel arc a350m",
    "350",
    0,
    [
      [
        1920,
        1080,
        195
      ]
    ]
  ],
  [
    "intel arc a370m",
    "370",
    0,
    [
      [
        1920,
        1080,
        278
      ]
    ]
  ],
  [
    "intel arc a550m",
    "550",
    0,
    [
      [
        1920,
        1080,
        144
      ]
    ]
  ],
  [
    "intel broxton-p hd",
    "p",
    0,
    [
      [
        1920,
        1080,
        73
      ]
    ]
  ],
  [
    "intel cherryview hd",
    "hd",
    0,
    [
      [
        1920,
        1080,
        16
      ]
    ]
  ],
  [
    "intel coffee lake uhd",
    "uhd",
    0,
    [
      [
        1920,
        1080,
        49
      ]
    ]
  ],
  [
    "intel cometlake uhd graphics 630",
    "630",
    0,
    [
      [
        2560,
        1440,
        40
      ]
    ]
  ],
  [
    "intel corporation 2nd gen core processor family integrated graphics controller",
    "2",
    0,
    [
      [
        1366,
        768,
        25
      ]
    ]
  ],
  [
    "intel corporation 2nd generation core processor family integrated graphics controller",
    "2",
    0,
    [
      [
        1600,
        900,
        28
      ]
    ]
  ],
  [
    "intel corporation 3rd gen core processor graphics controller",
    "3",
    0,
    [
      [
        1366,
        768,
        26
      ]
    ]
  ],
  [
    "intel corporation 8th gen core processor gaussian mixture model",
    "8",
    0,
    [
      [
        1366,
        768,
        17
      ]
    ]
  ],
  [
    "intel corporation atom processor z36xxx/z37xxx series graphics & display",
    "36",
    0,
    [
      [
        1280,
        799,
        18
      ],
      [
        1366,
        768,
        18
      ]
    ]
  ],
  [
    "intel corporation atom/celeron/pentium processor n4200 series integrated graphics controller",
    "4200",
    0,
    [
      [
        1280,
        1024,
        28
      ]
    ]
  ],
  [
    "intel corporation atom/celeron/pentium processor x5-e8000 integrated graphics controller",
    "5",
    0,
    [
      [
        1366,
        768,
        34
      ]
    ]
  ],
  [
    "intel corporation atom/celeron/pentium processor x5-e8000 series pci configuration registers",
    "5",
    0,
    [
      [
        1920,
        1080,
        14
      ]
    ]
  ],
  [
    "intel corporation broadwell-u integrated",
    "u",
    0,
    [
      [
        1920,
        1080,
        38
      ]
    ]
  ],
  [
    "intel corporation celeron n3350 n4200/atom e3900 series integrated graphics controller",
    "3350",
    0,
    [
      [
        1680,
        1050,
        33
      ]
    ]
  ],
  [
    "intel corporation coffeelake-h gt2 [uhd graphics 630]",
    "2",
    0,
    [
      [
        1920,
        1080,
        76
      ]
    ]
  ],
  [
    "intel corporation cometlake-h gt2 [uhd graphics]",
    "2",
    0,
    [
      [
        3072,
        1728,
        29
      ]
    ]
  ],
  [
    "intel corporation cometlake-s gt2 [uhd graphics 630]",
    "2",
    0,
    [
      [
        1920,
        1080,
        52
      ]
    ]
  ],
  [
    "intel corporation cometlake-u gt2 [uhd graphics]",
    "2",
    0,
    [
      [
        1920,
        1080,
        39
      ]
    ]
  ],
  [
    "intel corporation device",
    "",
    0,
    [
      [
        1920,
        1080,
        31
      ]
    ]
  ],
  [
    "intel corporation geminilake [uhd graphics 600]",
    "600",
    0,
    [
      [
        1920,
        1080,
        15
      ]
    ]
  ],
  [
    "intel corporation haswell-ult integrated graphics controller",
    "ult",
    0,
    [
      [
        1366,
        768,
        35
      ]
    ]
  ],
  [
    "intel corporation hd",
    "hd",
    0,
    [
      [
        1920,
        1080,
        24
      ]
    ]
  ],
  [
    "intel corporation hd graphics 500",
    "500",
    0,
    [
      [
        1366,
        768,
        19
      ]
    ]
  ],
  [
    "intel corporation hd graphics 510",
    "510",
    0,
    [
      [
        1368,
        768,
        48
      ]
    ]
  ],
  [
    "intel corporation hd graphics 515",
    "515",
    0,
    [
      [
        1920,
        1080,
        29
      ]
    ]
  ],
  [
    "intel corporation hd graphics 520",
    "520",
    0,
    [
      [
        1366,
        768,
        59
      ]
    ]
  ],
  [
    "intel corporation hd graphics 530",
    "530",
    0,
    [
      [
        1920,
        1080,
        58
      ]
    ]
  ],
  [
    "intel corporation hd graphics 5300",
    "5300",
    0,
    [
      [
        1920,
        1080,
        35
      ]
    ]
  ],
  [
    "intel corporation hd graphics 5500",
    "5500",
    0,
    [
      [
        1920,
        1080,
        36
      ]
    ]
  ],
  [
    "intel corporation hd graphics 610",
    "610",
    0,
    [
      [
        1920,
        1080,
        28
      ]
    ]
  ],
  [
    "intel corporation hd graphics 620",
    "620",
    0,
    [
      [
        1920,
        1080,
        56
      ],
      [
        3200,
        1800,
        17
      ]
    ]
  ],
  [
    "intel corporation hd graphics 630",
    "630",
    0,
    [
      [
        1920,
        1080,
        58
      ]
    ]
  ],
  [
    "intel corporation iris graphics 540",
    "540",
    0,
    [
      [
        1920,
        1080,
        54
      ]
    ]
  ],
  [
    "intel corporation iris graphics 6100",
    "6100",
    0,
    [
      [
        2560,
        1600,
        20
      ]
    ]
  ],
  [
    "intel corporation iris plus graphics 650",
    "650",
    0,
    [
      [
        1440,
        900,
        60
      ]
    ]
  ],
  [
    "intel corporation iris plus graphics 655",
    "655",
    0,
    [
      [
        1920,
        1080,
        119
      ]
    ]
  ],
  [
    "intel corporation iris plus graphics g1",
    "1",
    0,
    [
      [
        1920,
        1080,
        57
      ]
    ]
  ],
  [
    "intel corporation iris plus graphics g7",
    "7",
    0,
    [
      [
        1920,
        1080,
        112
      ]
    ]
  ],
  [
    "intel corporation iris pro graphics 580",
    "580",
    0,
    [
      [
        1920,
        1080,
        60
      ]
    ]
  ],
  [
    "intel corporation iris pro graphics 6200",
    "6200",
    0,
    [
      [
        2560,
        1080,
        41
      ]
    ]
  ],
  [
    "intel corporation iris xe",
    "xe",
    0,
    [
      [
        1920,
        1200,
        60
      ]
    ]
  ],
  [
    "intel corporation sky lake integrated",
    "sky",
    0,
    [
      [
        2560,
        1440,
        52
      ]
    ]
  ],
  [
    "intel corporation skylake gt2 [hd graphics 520]",
    "2",
    0,
    [
      [
        1920,
        1080,
        52
      ],
      [
        2560,
        1440,
        31
      ]
    ]
  ],
  [
    "intel corporation skylake integrated",
    "",
    0,
    [
      [
        1920,
        1080,
        51
      ]
    ]
  ],
  [
    "intel corporation tigerlake gt2 [iris xe graphics]",
    "2",
    0,
    [
      [
        1920,
        1080,
        60
      ]
    ]
  ],
  [
    "intel corporation tigerlake-lp gt2 [iris xe graphics]",
    "2",
    0,
    [
      [
        1920,
        1080,
        60
      ]
    ]
  ],
  [
    "intel corporation uhd",
    "uhd",
    0,
    [
      [
        1920,
        1080,
        65
      ]
    ]
  ],
  [
    "intel corporation uhd graphics 605",
    "605",
    0,
    [
      [
        1920,
        1080,
        21
      ]
    ]
  ],
  [
    "intel corporation uhd graphics 615",
    "615",
    0,
    [
      [
        1920,
        1080,
        30
      ]
    ]
  ],
  [
    "intel corporation uhd graphics 620",
    "620",
    0,
    [
      [
        1920,
        1080,
        55
      ]
    ]
  ],
  [
    "intel corporation uhd graphics 630",
    "630",
    0,
    [
      [
        1920,
        1080,
        57
      ]
    ]
  ],
  [
    "intel corporation whiskeylake-u gt2 [uhd graphics 620]",
    "2",
    0,
    [
      [
        1920,
        1080,
        57
      ]
    ]
  ],
  [
    "intel corporation xeon e3-1200 v2 gen core processor graphics controller",
    "3",
    0,
    [
      [
        1920,
        1080,
        16
      ]
    ]
  ],
  [
    "intel corporation xeon e3-1200 v3 gen core processor integrated graphics controller",
    "3",
    0,
    [
      [
        1360,
        768,
        28
      ],
      [
        1440,
        900,
        34
      ],
      [
        1280,
        1024,
        23
      ],
      [
        1920,
        1080,
        22
      ]
    ]
  ],
  [
    "intel corporation, series chipset iris plus graphics 655",
    "655",
    0,
    [
      [
        1920,
        1080,
        42
      ]
    ]
  ],
  [
    "intel geforce gtx 960",
    "960",
    0,
    [
      [
        1920,
        1080,
        26
      ]
    ]
  ],
  [
    "intel gen12 desktop graphics controller",
    "12",
    0,
    [
      [
        3840,
        2160,
        20
      ]
    ]
  ],
  [
    "intel graphics gfx-driver-user-feature_dg1_poweron-27723 dch releaseinternal",
    "1",
    0,
    [
      [
        3840,
        2160,
        11
      ]
    ]
  ],
  [
    "intel hd",
    "hd",
    0,
    [
      [
        1280,
        800,
        18
      ],
      [
        1366,
        768,
        26
      ],
      [
        1600,
        900,
        12
      ],
      [
        1920,
        1080,
        13
      ],
      [
        1920,
        1200,
        16
      ],
      [
        1920,
        1280,
        18
      ],
      [
        3000,
        2002,
        6
      ],
      [
        4096,
        2160,
        4
      ]
    ]
  ],
  [
    "intel hd 4000",
    "4000",
    0,
    [
      [
        1366,
        768,
        37
      ]
    ]
  ],
  [
    "intel hd 530",
    "530",
    0,
    [
      [
        1920,
        1200,
        54
      ]
    ]
  ],
  [
    "intel hd graphics 3000",
    "3000",
    0,
    [
      [
        1366,
        768,
        44
      ],
      [
        1920,
        1080,
        21
      ]
    ]
  ],
  [
    "intel hd graphics 4000",
    "4000",
    0,
    [
      [
        1280,
        800,
        41
      ],
      [
        1366,
        768,
        33
      ],
      [
        1440,
        900,
        24
      ],
      [
        1680,
        1050,
        50
      ],
      [
        1920,
        1080,
        27
      ],
      [
        2560,
        1600,
        13
      ],
      [
        2880,
        1800,
        12
      ]
    ]
  ],
  [
    "intel hd graphics 4000,,,,,,,",
    "4000",
    0,
    [
      [
        1920,
        1080,
        19
      ]
    ]
  ],
  [
    "intel hd graphics 4400",
    "4400",
    0,
    [
      [
        1366,
        768,
        28
      ],
      [
        1280,
        1024,
        48
      ],
      [
        1680,
        1050,
        33
      ],
      [
        1920,
        1080,
        18
      ],
      [
        2160,
        1440,
        20
      ]
    ]
  ],
  [
    "intel hd graphics 4600",
    "4600",
    0,
    [
      [
        1366,
        768,
        14
      ],
      [
        1280,
        960,
        65
      ],
      [
        1280,
        1024,
        60
      ],
      [
        1600,
        900,
        33
      ],
      [
        1680,
        1050,
        31
      ],
      [
        1600,
        1200,
        47
      ],
      [
        1920,
        1080,
        19
      ],
      [
        1920,
        1200,
        22
      ],
      [
        2880,
        1620,
        14
      ]
    ]
  ],
  [
    "intel hd graphics 500",
    "500",
    0,
    [
      [
        1366,
        768,
        31
      ],
      [
        1920,
        1080,
        15
      ]
    ]
  ],
  [
    "intel hd graphics 5000",
    "5000",
    0,
    [
      [
        1366,
        768,
        45
      ],
      [
        1440,
        900,
        42
      ],
      [
        1920,
        1032,
        25
      ],
      [
        1920,
        1080,
        27
      ],
      [
        2160,
        1439,
        19
      ],
      [
        2160,
        1440,
        23
      ],
      [
        2560,
        1440,
        15
      ]
    ]
  ],
  [
    "intel hd graphics 505",
    "505",
    0,
    [
      [
        1366,
        768,
        28
      ],
      [
        1920,
        1080,
        16
      ]
    ]
  ],
  [
    "intel hd graphics 510",
    "510",
    0,
    [
      [
        1366,
        768,
        46
      ],
      [
        1440,
        900,
        46
      ],
      [
        1680,
        1050,
        12
      ],
      [
        1920,
        1080,
        26
      ]
    ]
  ],
  [
    "intel hd graphics 515",
    "515",
    0,
    [
      [
        1920,
        1080,
        45
      ],
      [
        2720,
        768,
        22
      ],
      [
        1920,
        1280,
        41
      ],
      [
        2160,
        1440,
        28
      ],
      [
        2560,
        1600,
        16
      ],
      [
        2736,
        1824,
        19
      ],
      [
        3200,
        1800,
        12
      ],
      [
        3840,
        2160,
        10
      ]
    ]
  ],
  [
    "intel hd graphics 520",
    "520",
    0,
    [
      [
        1366,
        768,
        90
      ],
      [
        1920,
        1080,
        30
      ],
      [
        2736,
        1824,
        26
      ],
      [
        3000,
        2000,
        21
      ]
    ]
  ],
  [
    "intel hd graphics 530",
    "530",
    0,
    [
      [
        1366,
        768,
        21
      ],
      [
        1280,
        1024,
        65
      ],
      [
        1920,
        1080,
        47
      ],
      [
        1920,
        1200,
        39
      ],
      [
        3360,
        2100,
        55
      ],
      [
        3840,
        2160,
        6
      ]
    ]
  ],
  [
    "intel hd graphics 5300",
    "5300",
    0,
    [
      [
        1920,
        1080,
        21
      ],
      [
        2304,
        1440,
        19
      ],
      [
        2560,
        1600,
        12
      ]
    ]
  ],
  [
    "intel hd graphics 5500",
    "5500",
    0,
    [
      [
        1366,
        768,
        37
      ],
      [
        1920,
        1080,
        21
      ]
    ]
  ],
  [
    "intel hd graphics 5600",
    "5600",
    0,
    [
      [
        1920,
        1080,
        26
      ],
      [
        1920,
        1200,
        40
      ],
      [
        2880,
        1620,
        21
      ]
    ]
  ],
  [
    "intel hd graphics 6000",
    "6000",
    0,
    [
      [
        1366,
        768,
        43
      ],
      [
        1440,
        900,
        40
      ],
      [
        1920,
        1080,
        21
      ]
    ]
  ],
  [
    "intel hd graphics 610",
    "610",
    0,
    [
      [
        1366,
        768,
        33
      ],
      [
        1600,
        900,
        42
      ],
      [
        1920,
        1080,
        27
      ],
      [
        3840,
        2160,
        8
      ]
    ]
  ],
  [
    "intel hd graphics 615",
    "615",
    0,
    [
      [
        1600,
        900,
        13
      ],
      [
        1920,
        1080,
        18
      ],
      [
        1800,
        1200,
        29
      ],
      [
        1920,
        1200,
        34
      ],
      [
        2560,
        1440,
        25
      ],
      [
        2560,
        1600,
        21
      ],
      [
        2736,
        1824,
        21
      ]
    ]
  ],
  [
    "intel hd graphics 620",
    "620",
    0,
    [
      [
        1920,
        1080,
        37
      ],
      [
        2736,
        1824,
        27
      ],
      [
        3200,
        1800,
        25
      ],
      [
        3840,
        2160,
        13
      ]
    ]
  ],
  [
    "intel hd graphics 630",
    "630",
    0,
    [
      [
        1366,
        768,
        69
      ],
      [
        1920,
        1080,
        40
      ],
      [
        2560,
        1440,
        27
      ],
      [
        2560,
        1600,
        23
      ],
      [
        3360,
        2100,
        56
      ],
      [
        3840,
        2160,
        12
      ]
    ]
  ],
  [
    "intel hd graphics 630 gt2",
    "630",
    0,
    [
      [
        1920,
        1080,
        39
      ],
      [
        1720,
        1440,
        120
      ]
    ]
  ],
  [
    "intel hd graphics cfl crb",
    "hdcfl",
    0,
    [
      [
        2560,
        1440,
        38
      ]
    ]
  ],
  [
    "intel hd graphics family",
    "hd",
    0,
    [
      [
        1366,
        768,
        44
      ]
    ]
  ],
  [
    "intel hd graphics icl rvp",
    "hdicl",
    0,
    [
      [
        1920,
        1080,
        58
      ]
    ]
  ],
  [
    "intel hd graphics icl rvp bigsur",
    "hdicl",
    0,
    [
      [
        1920,
        1080,
        57
      ]
    ]
  ],
  [
    "intel hd graphics kbl crb",
    "hdkbl",
    0,
    [
      [
        1920,
        1080,
        57
      ],
      [
        3840,
        2160,
        13
      ]
    ]
  ],
  [
    "intel hd graphics p4600",
    "4600",
    0,
    [
      [
        1280,
        1024,
        57
      ],
      [
        1920,
        1080,
        18
      ],
      [
        2560,
        1600,
        60
      ]
    ]
  ],
  [
    "intel hd graphics p530",
    "530",
    0,
    [
      [
        2560,
        1440,
        36
      ],
      [
        3840,
        2160,
        12
      ]
    ]
  ],
  [
    "intel hd graphics p630",
    "630",
    0,
    [
      [
        1440,
        900,
        35
      ],
      [
        1920,
        1200,
        50
      ]
    ]
  ],
  [
    "intel hd graphics, gen10",
    "10",
    0,
    [
      [
        3840,
        2160,
        4
      ]
    ]
  ],
  [
    "intel hd5500 broadwell pg7",
    "5500",
    0,
    [
      [
        1366,
        768,
        31
      ]
    ]
  ],
  [
    "intel hd5500 graphics pg7",
    "5500",
    0,
    [
      [
        1366,
        768,
        56
      ]
    ]
  ],
  [
    "intel iris",
    "",
    0,
    [
      [
        1600,
        900,
        34
      ],
      [
        1920,
        1080,
        31
      ],
      [
        2560,
        1600,
        17
      ],
      [
        3360,
        2100,
        10
      ]
    ]
  ],
  [
    "intel iris graphics 5100",
    "5100",
    0,
    [
      [
        1920,
        1080,
        35
      ],
      [
        2560,
        1600,
        18
      ]
    ]
  ],
  [
    "intel iris graphics 540",
    "540",
    0,
    [
      [
        1920,
        1080,
        20
      ],
      [
        2736,
        1824,
        28
      ],
      [
        2880,
        1800,
        23
      ],
      [
        3200,
        1800,
        17
      ],
      [
        3840,
        2160,
        17
      ]
    ]
  ],
  [
    "intel iris graphics 550",
    "550",
    0,
    [
      [
        1920,
        1080,
        81
      ],
      [
        2160,
        1440,
        45
      ],
      [
        2560,
        1600,
        28
      ],
      [
        2880,
        1800,
        26
      ],
      [
        3840,
        2160,
        24
      ]
    ]
  ],
  [
    "intel iris graphics 6100",
    "6100",
    0,
    [
      [
        1920,
        1080,
        26
      ],
      [
        2560,
        1600,
        19
      ],
      [
        3840,
        2160,
        10
      ]
    ]
  ],
  [
    "intel iris graphics 6200",
    "6200",
    0,
    [
      [
        4096,
        2304,
        13
      ]
    ]
  ],
  [
    "intel iris graphics 640",
    "640",
    0,
    [
      [
        2256,
        1504,
        24
      ],
      [
        3840,
        2160,
        9
      ]
    ]
  ],
  [
    "intel iris graphics 650",
    "650",
    0,
    [
      [
        2560,
        1440,
        24
      ]
    ]
  ],
  [
    "intel iris graphics p580",
    "580",
    0,
    [
      [
        3840,
        2160,
        12
      ]
    ]
  ],
  [
    "intel iris plus",
    "",
    0,
    [
      [
        1920,
        1080,
        60
      ],
      [
        2256,
        1504,
        95
      ],
      [
        2496,
        1664,
        93
      ],
      [
        2736,
        1824,
        60
      ],
      [
        2880,
        1800,
        60
      ],
      [
        3000,
        2000,
        56
      ]
    ]
  ],
  [
    "intel iris plus graphics 640",
    "640",
    0,
    [
      [
        1920,
        1080,
        87
      ],
      [
        2256,
        1504,
        46
      ],
      [
        2560,
        1600,
        44
      ],
      [
        2735,
        1823,
        28
      ],
      [
        2736,
        1824,
        28
      ],
      [
        2880,
        1800,
        26
      ],
      [
        3072,
        1728,
        25
      ],
      [
        3200,
        1800,
        37
      ],
      [
        3840,
        2160,
        16
      ]
    ]
  ],
  [
    "intel iris plus graphics 645",
    "645",
    0,
    [
      [
        2560,
        1599,
        32
      ],
      [
        2560,
        1600,
        56
      ],
      [
        2880,
        1800,
        47
      ]
    ]
  ],
  [
    "intel iris plus graphics 650",
    "650",
    0,
    [
      [
        1920,
        1080,
        60
      ],
      [
        2560,
        1600,
        49
      ],
      [
        2880,
        1800,
        27
      ],
      [
        3840,
        2160,
        16
      ]
    ]
  ],
  [
    "intel iris plus graphics 655",
    "655",
    0,
    [
      [
        1920,
        1080,
        58
      ],
      [
        2560,
        1440,
        85
      ],
      [
        2880,
        1800,
        32
      ],
      [
        3840,
        2160,
        24
      ]
    ]
  ],
  [
    "intel iris plus graphics g1",
    "1",
    0,
    [
      [
        1920,
        1080,
        30
      ]
    ]
  ],
  [
    "intel iris pro",
    "pro",
    0,
    [
      [
        1920,
        1080,
        56
      ]
    ]
  ],
  [
    "intel iris pro graphics 5200",
    "5200",
    0,
    [
      [
        1920,
        1080,
        53
      ],
      [
        2879,
        1800,
        24
      ],
      [
        2880,
        1800,
        21
      ],
      [
        3840,
        2400,
        17
      ]
    ]
  ],
  [
    "intel iris pro graphics 580",
    "580",
    0,
    [
      [
        1920,
        1080,
        58
      ],
      [
        2560,
        1080,
        91
      ],
      [
        2560,
        1440,
        58
      ],
      [
        3840,
        1600,
        27
      ]
    ]
  ],
  [
    "intel iris pro graphics 6200",
    "6200",
    0,
    [
      [
        1366,
        696,
        38
      ],
      [
        1920,
        1080,
        58
      ],
      [
        1920,
        1200,
        60
      ],
      [
        3840,
        2160,
        19
      ],
      [
        4096,
        2304,
        14
      ]
    ]
  ],
  [
    "intel iris pro graphics p580",
    "580",
    0,
    [
      [
        1024,
        768,
        42
      ],
      [
        1920,
        1080,
        103
      ],
      [
        3840,
        2160,
        27
      ]
    ]
  ],
  [
    "intel iris pro graphics p6300",
    "6300",
    0,
    [
      [
        1366,
        768,
        102
      ],
      [
        1440,
        900,
        128
      ],
      [
        1920,
        1080,
        30
      ]
    ]
  ],
  [
    "intel iris xe",
    "xe",
    0,
    [
      [
        1920,
        1080,
        88
      ]
    ]
  ],
  [
    "intel iris xe graphics releaseinternal",
    "xe",
    0,
    [
      [
        3840,
        2160,
        38
      ]
    ]
  ],
  [
    "intel iris xe graphics ri",
    "xeri",
    0,
    [
      [
        3840,
        2160,
        48
      ]
    ]
  ],
  [
    "intel iris xe max",
    "xe",
    0,
    [
      [
        1920,
        1080,
        60
      ],
      [
        3840,
        2160,
        56
      ]
    ]
  ],
  [
    "intel kabylake hd graphics ult gt2",
    "2",
    0,
    [
      [
        3840,
        2160,
        11
      ]
    ]
  ],
  [
    "intel kabylake hd graphics ulx gt2",
    "2",
    0,
    [
      [
        1920,
        1080,
        28
      ],
      [
        3840,
        2160,
        6
      ]
    ]
  ],
  [
    "intel kbl unknown",
    "kbl",
    0,
    [
      [
        1920,
        1080,
        54
      ]
    ]
  ],
  [
    "intel mesa dri intel bay trail",
    "dribay",
    0,
    [
      [
        1366,
        768,
        14
      ]
    ]
  ],
  [
    "intel mesa dri intel haswell mobile",
    "dri",
    0,
    [
      [
        1920,
        1080,
        27
      ]
    ]
  ],
  [
    "intel mesa dri intel hd",
    "drihd",
    0,
    [
      [
        1920,
        1080,
        10
      ]
    ]
  ],
  [
    "intel mesa dri intel hd graphics 400",
    "400",
    0,
    [
      [
        1366,
        768,
        30
      ]
    ]
  ],
  [
    "intel mesa dri intel hd graphics 505",
    "505",
    0,
    [
      [
        1920,
        1080,
        27
      ]
    ]
  ],
  [
    "intel mesa dri intel hd graphics 520",
    "520",
    0,
    [
      [
        1920,
        1080,
        45
      ],
      [
        2560,
        1440,
        24
      ]
    ]
  ],
  [
    "intel mesa dri intel hd graphics 530",
    "530",
    0,
    [
      [
        3840,
        2160,
        12
      ]
    ]
  ],
  [
    "intel mesa dri intel hd graphics 5500",
    "5500",
    0,
    [
      [
        1366,
        768,
        40
      ]
    ]
  ],
  [
    "intel mesa dri intel hd graphics 620",
    "620",
    0,
    [
      [
        1920,
        1080,
        53
      ]
    ]
  ],
  [
    "intel mesa dri intel hd graphics 630",
    "630",
    0,
    [
      [
        1477,
        831,
        58
      ]
    ]
  ],
  [
    "intel mesa dri intel hd graphics p4000",
    "4000",
    0,
    [
      [
        1920,
        1080,
        36
      ]
    ]
  ],
  [
    "intel mesa dri intel iris graphics 540",
    "540",
    0,
    [
      [
        1280,
        720,
        40
      ]
    ]
  ],
  [
    "intel mesa dri intel ivybridge desktop",
    "dri",
    0,
    [
      [
        2560,
        1080,
        16
      ]
    ]
  ],
  [
    "intel mesa dri intel ivybridge mobile",
    "dri",
    0,
    [
      [
        1920,
        1080,
        25
      ]
    ]
  ],
  [
    "intel mesa dri intel kabylake gt2",
    "2",
    0,
    [
      [
        1920,
        1080,
        36
      ]
    ]
  ],
  [
    "intel mesa dri intel sandybridge desktop",
    "dri",
    0,
    [
      [
        1280,
        1024,
        12
      ]
    ]
  ],
  [
    "intel mesa dri intel sandybridge mobile",
    "dri",
    0,
    [
      [
        1366,
        768,
        33
      ]
    ]
  ],
  [
    "intel mesa dri intel uhd graphics 620",
    "620",
    0,
    [
      [
        2736,
        1824,
        22
      ]
    ]
  ],
  [
    "intel mesa dri intel uhd graphics 630",
    "630",
    0,
    [
      [
        1920,
        1080,
        42
      ]
    ]
  ],
  [
    "intel mesa intel hd graphics 520",
    "520",
    0,
    [
      [
        1920,
        1080,
        47
      ]
    ]
  ],
  [
    "intel mesa intel hd graphics 530",
    "530",
    0,
    [
      [
        1920,
        1080,
        55
      ]
    ]
  ],
  [
    "intel phdgd ivy 4",
    "4",
    0,
    [
      [
        1366,
        768,
        45
      ]
    ]
  ],
  [
    "intel radeon pro vega 16",
    "16",
    0,
    [
      [
        3360,
        1890,
        20
      ]
    ]
  ],
  [
    "intel radeong 0.4 on amd bonaire",
    "0",
    0,
    [
      [
        1920,
        1200,
        92
      ]
    ]
  ],
  [
    "intel radeong 0.4 on amd cape verde",
    "0",
    0,
    [
      [
        1920,
        1200,
        73
      ]
    ]
  ],
  [
    "intel radeong 0.4 on amd polaris10",
    "0",
    0,
    [
      [
        3840,
        2160,
        108
      ]
    ]
  ],
  [
    "intel radeong 0.4 on amd tonga",
    "0",
    0,
    [
      [
        1920,
        1080,
        124
      ]
    ]
  ],
  [
    "intel skl unknown",
    "skl",
    0,
    [
      [
        1920,
        1080,
        43
      ]
    ]
  ],
  [
    "intel skylake gt2 [hd graphics 520]",
    "2",
    0,
    [
      [
        1920,
        1080,
        39
      ]
    ]
  ],
  [
    "intel uhd",
    "uhd",
    0,
    [
      [
        1920,
        1080,
        58
      ],
      [
        2560,
        1600,
        22
      ],
      [
        3440,
        1440,
        14
      ],
      [
        2736,
        1824,
        32
      ],
      [
        3840,
        2160,
        31
      ]
    ]
  ],
  [
    "intel uhd 630",
    "630",
    0,
    [
      [
        2560,
        1440,
        38
      ]
    ]
  ],
  [
    "intel uhd graphics 600",
    "600",
    0,
    [
      [
        1366,
        768,
        27
      ],
      [
        1920,
        1080,
        14
      ],
      [
        1920,
        1200,
        13
      ],
      [
        2560,
        1440,
        11
      ],
      [
        3840,
        2160,
        5
      ]
    ]
  ],
  [
    "intel uhd graphics 600 universal",
    "600",
    0,
    [
      [
        1919,
        1031,
        15
      ]
    ]
  ],
  [
    "intel uhd graphics 605",
    "605",
    0,
    [
      [
        1366,
        768,
        29
      ],
      [
        1920,
        1080,
        37
      ]
    ]
  ],
  [
    "intel uhd graphics 610",
    "610",
    0,
    [
      [
        1366,
        768,
        29
      ],
      [
        1920,
        1080,
        32
      ],
      [
        1920,
        1200,
        37
      ],
      [
        2560,
        1440,
        17
      ],
      [
        3840,
        2160,
        11
      ]
    ]
  ],
  [
    "intel uhd graphics 615",
    "615",
    0,
    [
      [
        1920,
        1080,
        34
      ],
      [
        1920,
        1280,
        29
      ],
      [
        3840,
        2160,
        9
      ]
    ]
  ],
  [
    "intel uhd graphics 617",
    "617",
    0,
    [
      [
        1920,
        1080,
        43
      ],
      [
        2560,
        1599,
        24
      ],
      [
        2560,
        1600,
        26
      ],
      [
        2880,
        1800,
        24
      ]
    ]
  ],
  [
    "intel uhd graphics 620",
    "620",
    0,
    [
      [
        1920,
        1080,
        50
      ],
      [
        2736,
        1824,
        33
      ],
      [
        3200,
        1800,
        16
      ]
    ]
  ],
  [
    "intel uhd graphics 630",
    "630",
    0,
    [
      [
        1440,
        900,
        112
      ],
      [
        1920,
        1080,
        44
      ],
      [
        1920,
        1200,
        65
      ],
      [
        2560,
        1080,
        68
      ],
      [
        2560,
        1440,
        26
      ],
      [
        3440,
        1440,
        25
      ],
      [
        3584,
        2240,
        137
      ],
      [
        3840,
        2160,
        12
      ],
      [
        6016,
        3384,
        8
      ]
    ]
  ],
  [
    "intel uhd graphics 730",
    "730",
    0,
    [
      [
        1920,
        1080,
        53
      ]
    ]
  ],
  [
    "intel uhd graphics 750",
    "750",
    0,
    [
      [
        1920,
        1080,
        84
      ]
    ]
  ],
  [
    "intel uhd graphics 770",
    "770",
    0,
    [
      [
        1920,
        1080,
        114
      ],
      [
        3840,
        2160,
        46
      ]
    ]
  ],
  [
    "intel uhd graphics gfx-driver-user-comp_core-23599",
    "23599",
    0,
    [
      [
        3840,
        2160,
        18
      ]
    ]
  ],
  [
    "intel uhd graphics p630",
    "630",
    0,
    [
      [
        1920,
        1080,
        54
      ],
      [
        3840,
        2160,
        21
      ]
    ]
  ],
  [
    "intel uhd graphics releaseinternal",
    "uhd",
    0,
    [
      [
        3199,
        1800,
        22
      ],
      [
        3000,
        2000,
        47
      ]
    ]
  ],
  [
    "intel uhd graphics ri",
    "uhdri",
    0,
    [
      [
        1920,
        1280,
        37
      ]
    ]
  ],
  [
    "intel uhd graphics, gen11 lp",
    "11",
    0,
    [
      [
        3840,
        2160,
        10
      ]
    ]
  ],
  [
    "intel uhd graphics, gen12 lp releaseinternal",
    "12",
    0,
    [
      [
        3839,
        2159,
        4
      ]
    ]
  ],
  [
    "intel uhd graphics, lkf",
    "uhdlkf",
    0,
    [
      [
        1927,
        1439,
        14
      ]
    ]
  ],
  [
    "intel unknown",
    "",
    0,
    [
      [
        1920,
        1080,
        37
      ]
    ]
  ],
  [
    "intel xe",
    "xe",
    0,
    [
      [
        1920,
        1080,
        337
      ],
      [
        2560,
        1440,
        165
      ]
    ]
  ],
  [
    "intel xe graphics releaseinternal",
    "xe",
    0,
    [
      [
        3840,
        2160,
        151
      ]
    ]
  ],
  [
    "intel xeon e3-1200 v3 gen core processor integrated graphics controller",
    "3",
    0,
    [
      [
        1600,
        900,
        49
      ]
    ]
  ]
]